<?xml version="1.0" encoding="utf-8"?>
<!-- Generator: Adobe Illustrator 17.0.0, SVG Export Plug-In . SVG Version: 6.00 Build 0)  -->
<!DOCTYPE svg PUBLIC "-//W3C//DTD SVG 1.1//EN" "http://www.w3.org/Graphics/SVG/1.1/DTD/svg11.dtd">
<svg version="1.1" id="Layer_1" xmlns="http://www.w3.org/2000/svg" xmlns:xlink="http://www.w3.org/1999/xlink" x="0px" y="0px"
	 width="180px" height="180px" viewBox="0 0 180 180" enable-background="new 0 0 180 180" xml:space="preserve">
<path fill="#010101" d="M144.008,22.489H35.992c-7.426,0-13.435,6.076-13.435,13.502l-0.068,121.519l27.004-27.004h94.515
	c7.426,0,13.502-6.076,13.502-13.502V35.992C157.511,28.565,151.435,22.489,144.008,22.489z M49.494,69.747h81.013v13.502H49.494
	V69.747z M103.502,103.502H49.494V90h54.008V103.502z M130.506,62.996H49.494V49.494h81.013V62.996z"/>
<path fill="none" d="M8.835,9.835h162.025v162.025H8.835V9.835z"/>
</svg>
